[
    {
      "short": "LV",
      "full": "Low Voltage",
      "maxVoltage": 32
    },
    {
      "short": "MV",
      "full": "Medium Voltage",
      "maxVoltage": 128
    },
    {
      "short": "HV",
      "full": "High Voltage",
      "maxVoltage": 512
    },
    {
      "short": "EV",
      "full": "Extreme Voltage",
      "maxVoltage": 2048
    },
    {
      "short": "IV",
      "full": "Insane Voltage",
      "maxVoltage": 8192
    },
    {
      "short": "LuV",
      "full": "Ludicrous Voltage",
      "maxVoltage": 32768
    },
    {
      "short": "ZPM",
      "full": "ZPM Voltage",
      "maxVoltage": 131072
    },
    {
      "short": "UV",
      "full": "Ultimate Voltage",
      "maxVoltage": 524288
    },
    {
      "short": "MAX",
      "full": "Maximum Voltage",
      "maxVoltage": 2147483647
    }
]